<?xml version="1.0" encoding="iso-8859-1"?>
<!-- Generator: Adobe Illustrator 19.0.0, SVG Export Plug-In . SVG Version: 6.00 Build 0)  -->
<svg version="1.1" id="Layer_1" xmlns="http://www.w3.org/2000/svg" xmlns:xlink="http://www.w3.org/1999/xlink" x="0px" y="0px"
	 viewBox="0 0 505 505" style="enable-background:new 0 0 505 505;" xml:space="preserve">
<circle style="fill:#90DFAA;" cx="252.5" cy="252.5" r="252.5"/>
<path style="fill:#324A5E;" d="M372.4,105.5H132.6c-6.3,0-11.5,5.1-11.5,11.5v271c0,6.3,5.1,11.5,11.5,11.5h239.8
	c6.3,0,11.5-5.1,11.5-11.5V117C383.9,110.7,378.7,105.5,372.4,105.5z"/>
<g>
	<rect x="153.9" y="105.5" style="fill:#E6E9EE;" width="197.2" height="107.7"/>
	<rect x="153.9" y="271.6" style="fill:#E6E9EE;" width="197.2" height="127.9"/>
</g>
<rect x="298.1" y="134" style="fill:#324A5E;" width="32.7" height="50.7"/>
<g>
	<rect x="176.7" y="293" style="fill:#CED5E0;" width="150.2" height="15"/>
	<rect x="176.7" y="327.1" style="fill:#CED5E0;" width="150.2" height="15"/>
	<rect x="176.7" y="361.2" style="fill:#CED5E0;" width="150.2" height="15"/>
</g>
<g>
</g>
<g>
</g>
<g>
</g>
<g>
</g>
<g>
</g>
<g>
</g>
<g>
</g>
<g>
</g>
<g>
</g>
<g>
</g>
<g>
</g>
<g>
</g>
<g>
</g>
<g>
</g>
<g>
</g>
</svg>
